<svg xmlns="http://www.w3.org/2000/svg" xmlns:xlink="http://www.w3.org/1999/xlink" version="1.1" id="Layer_1" x="0px" y="0px" width="40px" height="40px" viewBox="0 0 40 40" enable-background="new 0 0 40 40" xml:space="preserve">
<circle fill="none" stroke="#bc3183" stroke-width="3" stroke-miterlimit="10" cx="20" cy="20.001" r="17.5"/>
<line fill="none" stroke="#bc3183" stroke-width="4" stroke-miterlimit="10" x1="11.162" y1="28.839" x2="28.84" y2="11.161"/>
<line fill="none" stroke="#bc3183" stroke-width="4" stroke-miterlimit="10" x1="28.84" y1="28.839" x2="11.162" y2="11.161"/>
</svg>