<svg xmlns="http://www.w3.org/2000/svg" xmlns:xlink="http://www.w3.org/1999/xlink" version="1.1" id="Your_Icon" x="0px" y="0px" width="100px" height="100px" viewBox="0 0 100 100" enable-background="new 0 0 100 100" xml:space="preserve">
	<path d="M16.667,62.167c3.109,5.55,7.217,10.591,10.926,15.75 c2.614,3.636,5.149,7.519,8.161,10.853c-0.046-0.051,1.959,2.414,2.692,2.343c0.895-0.088,6.958-8.511,6.014-7.3 c5.997-7.695,11.68-15.463,16.931-23.696c6.393-10.025,12.235-20.373,18.104-30.707C82.004,24.988,84.802,20.601,87,16" stroke="#fdfcd3" stroke-widh="10px" stroke-linecap="round" stroke-linejoin="round"></path>
</svg>

<!-- style="stroke-dasharray: 126.369537353516px, 126.369537353516px; stroke-dashoffset: 0px; -webkit-transition: stroke-dashoffset 0.2s ease-in-out 0s; transition: stroke-dashoffset 0.2s ease-in-out 0s; -->