<?xml version="1.0" encoding="UTF-8" standalone="no"?>
<svg
   xmlns:dc="http://purl.org/dc/elements/1.1/"
   xmlns:cc="http://creativecommons.org/ns#"
   xmlns:rdf="http://www.w3.org/1999/02/22-rdf-syntax-ns#"
   xmlns:svg="http://www.w3.org/2000/svg"
   xmlns="http://www.w3.org/2000/svg"
   xmlns:sodipodi="http://sodipodi.sourceforge.net/DTD/sodipodi-0.dtd"
   xmlns:inkscape="http://www.inkscape.org/namespaces/inkscape"
   version="1.1"
   id="Layer_1"
   x="0px"
   y="0px"
   width="30px"
   height="30px"
   viewBox="0 0 100 100"
   enable-background="new 0 0 100 100"
   xml:space="preserve"
   fill="#8E2800"
   inkscape:version="0.48.5 r10040"
   sodipodi:docname="close.svg"><metadata
   id="metadata3027"><rdf:RDF><cc:Work
       rdf:about=""><dc:format>image/svg+xml</dc:format><dc:type
         rdf:resource="http://purl.org/dc/dcmitype/StillImage" /></cc:Work></rdf:RDF></metadata><defs
   id="defs3025" /><sodipodi:namedview
   pagecolor="#ffffff"
   bordercolor="#666666"
   borderopacity="1"
   objecttolerance="10"
   gridtolerance="10"
   guidetolerance="10"
   inkscape:pageopacity="0"
   inkscape:pageshadow="2"
   inkscape:window-width="1366"
   inkscape:window-height="705"
   id="namedview3023"
   showgrid="false"
   inkscape:snap-center="true"
   inkscape:zoom="17.266667"
   inkscape:cx="13.117761"
   inkscape:cy="15"
   inkscape:window-x="-8"
   inkscape:window-y="-8"
   inkscape:window-maximized="1"
   inkscape:current-layer="Layer_1" />
<g
   id="g3017"
   transform="matrix(1.616666,0,0,1.6166378,-30.865365,-30.798536)">
	<path
   d="m 63.191,62.248 c -2.93,-2.923 -6.98,-6.924 -10.857,-10.534 3.111,-3.669 6.691,-6.925 10.175,-10.42 2.372,-2.384 -0.952,-5.712 -3.327,-3.328 -3.531,3.55 -6.816,7.211 -9.983,10.929 -3.362,-2.999 -6.789,-5.862 -10.405,-8.587 -2.491,-1.875 -6.191,1.807 -3.671,3.704 3.756,2.831 7.349,5.855 10.832,8.979 -3.104,3.944 -5.991,8.067 -8.599,12.505 -1.697,2.884 2.623,5.254 4.322,2.359 2.404,-4.086 4.503,-8.449 7.353,-12.097 3.746,3.499 7.549,7.253 10.475,10.177 1.46,1.463 5.148,-2.226 3.685,-3.687 z"
   id="path3019"
   inkscape:connector-curvature="0" />
	<path
   d="M 76.861,39.449 C 71.175,27.712 60.048,23.705 48.531,23.616 c 0.711,-1.645 0.044,-3.885 -2.049,-3.59 -5.16,0.729 -9.981,2.748 -14.059,5.708 -1.564,0.406 -3.091,0.854 -4.558,1.339 -1.867,0.617 -2.077,2.794 -1.241,4.114 -6.284,7.656 -8.81,18.302 -4.425,29.288 C 29.392,78.497 53.31,85.346 68.851,75.477 80.512,68.07 82.742,51.59 76.861,39.449 z M 69.186,68.652 C 58.674,79.788 37.249,74.902 29.124,63.216 21.099,51.681 25.205,38.013 34.45,30.553 c 12.81,-3.261 27.867,-3.398 36.486,8.668 6.298,8.819 5.603,21.638 -1.75,29.431 z"
   id="path3021"
   inkscape:connector-curvature="0" />
</g>
</svg>